rt;rtid;'trname';'trgpname';'rthelp'
rt;0;'r_associated';'idée associée';Il est demandé d'énumérer les termes les plus étroitement associés au mot cible... Ce mot vous fait penser à quoi ?
rt;1;'r_raff_sem';'raffinement sémantique';Raffinement sémantique vers un usage particulier du terme source
"rt;4;'r_pos';'POS';Partie du discours (Nom, Verbe, Adjectif, Adverbe, etc.)"
rt;5;'r_syn';'synonyme';Il est demandé d'énumérer les synonymes ou quasi-synonymes de ce terme.
"rt;7;'r_anto';'contraire';Il est demandé d'énumérer des contraires du terme. Par exemple, 'chaud' est le contraire de 'froid'."
"rt;11;'r_locution';'locution';A partir d'un terme, il est demandé d'énumérer les locutions, expression ou mots composés en rapport avec ce terme. Par exemple, pour 'moulin', ou pourra avoir 'moulin à vent', 'moulin à eau', 'moulin à café'. Pour 'vendre', on pourra avoir 'vendre la peau de l'ours avant de l'avoir tué', 'vendre à perte', etc.."
"rt;13;'r_agent';'action>agent';L'agent (qu'on appelle aussi le sujet) est l'entité qui effectue l'action, OU la subit pour des formes passives ou des verbes d'état. Par exemple, dans - Le chat mange la souris -, l'agent est le chat. Des agents typiques de 'courir' peuvent être 'sportif', 'enfant',... (manger r_agent chat)"
"rt;14;'r_patient';'action>patient';Le patient (qu'on appelle aussi l'objet) est l'entité qui subit l'action. Par exemple dans - Le chat mange la souris -, le patient est la souris. Des patients typiques de manger peuvent être 'viande', 'légume', 'pain', ... (manger r_patient pain)"
"rt;16;'r_instr';'action>instrument';L'instrument est l'objet avec lequel on fait l'action. Dans - Il mange sa salade avec une fourchette -, fourchette est l'instrument. Des instruments typiques de 'tuer' peuvent être 'arme', 'pistolet', 'poison', ... (couper r_instr couteau)"
rt;18;'r_data';'r_data';Informations diverses (plutôt d'ordre lexicales)
rt;19;'r_lemma';'r_lemma';Le lemme (par exemple 'mangent a pour lemme  'manger' ; 'avions' a pour lemme 'avion' ou 'avoir').
"rt;20;'r_has_magn';'magn';La magnification ou amplification, par exemple - forte fièvre - ou - fièvre de cheval - pour fièvre. Ou encore - amour fou - pour amour, - peur bleue - pour peur."
"rt;22;'r_family';'famille';Des mots de la même famille lexicale sont demandés (dérivation morphologique, par exemple). Par exemple, pour 'lait' on pourrait mettre 'laitier', 'laitage', 'laiterie', etc."
rt;29;'r_chunk_pred';'predicat';(interne) d'un prédicat quel chunk ?
"rt;31;'r_action_lieu';'action>lieu';A partir d'une action (un verbe), énumérer les lieux typiques possibles où peut être réalisée cette action."
"rt;32;'r_sentiment';'sentiment';Pour un terme donné, évoquer des mots liés à des SENTIMENTS ou des EMOTIONS que vous pourriez associer à ce terme. Par exemple, la joie, le plaisir, le dégoût, la peur, la haine, l'amour, l'indifférence, l'envie, avoir peur, horrible, etc."
"rt;34;'r_manner';'manière';De quelles MANIERES peut être effectuée l'action (le verbe) proposée. Il s'agira d'un adverbe ou d'un équivalent comme une locution adverbiale, par exemple : 'rapidement', 'sur le pouce', 'goulûment', 'salement' ... pour 'manger'."
"rt;35;'r_meaning/glose';'glose/sens/signification';Quels SENS/SIGNIFICATIONS pouvez vous donner au terme proposé. Il s'agira de termes (des gloses) évoquant chacun des sens possibles, par exemple : 'forces de l'ordre', 'contrat d'assurance', 'police typographique', ... pour 'police'."
rt;36;'r_infopot';'information potentielle';Information sémantique potentielle
"rt;39;'r_verbe-action';'verbe>action';du verbe vers l'action. Par exemple, construire -> construction , jardiner -> jardinage . C'est un terme directement dérivé (ayant la même racine). Applicable que pour un verbe et inverse de la relation 40 (action vers verbe)."
rt;41;'r_has_conseq';'conséquence';B (que vous devez donner) est une CONSEQUENCE possible de A. A et B sont des verbes ou des noms.  Exemples : tomber -> se blesser ; faim -> voler ; allumer -> incendie ; négligence --> accident ; etc.
rt;42;'r_has_causatif';'cause';B (que vous devez donner) est une CAUSE possible de A. A et B sont des verbes ou des noms.  Exemples : se blesser -> tomber ; vol -> pauvreté ; incendie -> négligence ; mort --> maladie ; etc.
"rt;44;'r_verbe-adj';'verbe>adj';Pour un verbe, son adjectif de potentialité/possibilité correspondant. Par exemple pour 'laver' -> 'lavable'"
"rt;77;'r_verb_ppas';'r_verb_ppas';Le participe passé (au masculin singulier) du verbe infinitif. Par exemple, pour manger => mangé"
rt;128;'r_node2relnode-in';'r_node2relnode-in';Relation entre un noeud (quelconque) et un noeud de relation (type = 10)  - connecte le noeud d'entrée - permet de rendre le graphe connexe même avec les annotations de relations
rt;140;'r_node2relnode-out';'r_node2relnode-out';Relation entre un noeud (quelconque) et un noeud de relation (type = 10) - connecte le noeud de sortie - permet de rendre le graphe connexe même avec les annotations de relations
rt;333;'r_translation';'r_translation';Traduction vers une autre langue.
rt;555;'r_cooccurrence';'r_cooccurrence';co-occurences (non utilisée)
"rt;999;'r_inhib';'r_inhib';relation d'inhibition, le terme inhibe les termes suivants... ce terme a tendance à exclure le terme associé."
