rt;rtid;'trname';'trgpname';'rthelp'
rt;0;'r_associated';'idée associée';Il est demandé d'énumérer les termes les plus étroitement associés au mot cible... Ce mot vous fait penser à quoi ?
rt;1;'r_raff_sem';'raffinement sémantique';Raffinement sémantique vers un usage particulier du terme source
rt;2;'r_raff_morpho';'raffinement morphologique';Raffinement morphologique vers un usage particulier du terme source
"rt;3;'r_domain';'domaine';Il est demandé de fournir des domaines relatifs au mot cible. Par exemple, pour 'corner', on pourra donner les domaines 'football' ou 'sport'."
"rt;4;'r_pos';'POS';Partie du discours (Nom, Verbe, Adjectif, Adverbe, etc.)"
rt;5;'r_syn';'synonyme';Il est demandé d'énumérer les synonymes ou quasi-synonymes de ce terme.
"rt;6;'r_isa';'générique';Il est demandé d'énumérer les GENERIQUES/hyperonymes du terme. Par exemple, 'animal' et 'mammifère' sont des génériques de 'chat'."
"rt;9;'r_has_part';'partie';Il faut donner des PARTIES/constituants/éléments (a pour méronymes) du mot cible. Par exemple, 'voiture' a comme parties : 'porte', 'roue', 'moteur', ..."
"rt;10;'r_holo';'tout';Il est démandé d'énumérer des 'TOUT' (a pour holonymes)  de l'objet en question. Pour 'main', on aura 'bras', 'corps', 'personne', etc... Le tout est aussi l'ensemble comme 'classe' pour 'élève'."
"rt;11;'r_locution';'locution';A partir d'un terme, il est demandé d'énumérer les locutions, expression ou mots composés en rapport avec ce terme. Par exemple, pour 'moulin', ou pourra avoir 'moulin à vent', 'moulin à eau', 'moulin à café'. Pour 'vendre', on pourra avoir 'vendre la peau de l'ours avant de l'avoir tué', 'vendre à perte', etc.."
"rt;13;'r_agent';'action>agent';L'agent (qu'on appelle aussi le sujet) est l'entité qui effectue l'action, OU la subit pour des formes passives ou des verbes d'état. Par exemple, dans - Le chat mange la souris -, l'agent est le chat. Des agents typiques de 'courir' peuvent être 'sportif', 'enfant',... (manger r_agent chat)"
"rt;14;'r_patient';'action>patient';Le patient (qu'on appelle aussi l'objet) est l'entité qui subit l'action. Par exemple dans - Le chat mange la souris -, le patient est la souris. Des patients typiques de manger peuvent être 'viande', 'légume', 'pain', ... (manger r_patient pain)"
rt;15;'r_lieu';'chose>lieu';Il est demandé d'énumérer les LIEUX typiques où peut se trouver le terme/objet en question. (carotte r_lieu potager)
"rt;16;'r_instr';'action>instrument';L'instrument est l'objet avec lequel on fait l'action. Dans - Il mange sa salade avec une fourchette -, fourchette est l'instrument. Des instruments typiques de 'tuer' peuvent être 'arme', 'pistolet', 'poison', ... (couper r_instr couteau)"
"rt;17;'r_carac';'caractéristique';Pour un terme donné, souvent un objet, il est demandé d'en énumérer les CARACtéristiques (adjectifs) possibles/typiques. Par exemple, 'liquide', 'froide', 'chaude', pour 'eau'."
rt;18;'r_data';'r_data';Informations diverses (plutôt d'ordre lexicales)
rt;19;'r_lemma';'r_lemma';Le lemme (par exemple 'mangent a pour lemme  'manger' ; 'avions' a pour lemme 'avion' ou 'avoir').
"rt;20;'r_has_magn';'magn';La magnification ou amplification, par exemple - forte fièvre - ou - fièvre de cheval - pour fièvre. Ou encore - amour fou - pour amour, - peur bleue - pour peur."
"rt;21;'r_has_antimagn';'antimagn';L'inverse de la magnification, par exemple - bruine - pour pluie."
"rt;22;'r_family';'famille';Des mots de la même famille lexicale sont demandés (dérivation morphologique, par exemple). Par exemple, pour 'lait' on pourrait mettre 'laitier', 'laitage', 'laiterie', etc."
"rt;23;'r_carac-1';'caractéristique-1';Quels sont les objets (des noms) possédant typiquement/possiblement la caractérisque suivante ? Par exemple, 'soleil', 'feu', pour 'chaud'."
"rt;24;'r_agent-1';'agent typique-1';Que peut faire ce SUJET ? (par exemple chat => miauler, griffer, etc.) (chat r_agent-1 manger)"
"rt;25;'r_instr-1';'instrument>action';L'instrument est l'objet avec lequel on fait l'action. Dans - Il mange sa salade avec une fourchette -, fourchette est l'instrument. On demande ici, ce qu'on peut faire avec un instrument donné... (scie r_instr-1 scier)"
"rt;26;'r_patient-1';'patient-1';(inverse de r_patient) Que peut-on faire à cet OBJET. Pour 'pomme', on pourrait avoir 'manger', 'croquer', couper', 'éplucher',  etc. (pomme r_patient-1 manger)"
"rt;27;'r_domain-1';'domaine-1';inverse de r_domain : à un domaine, on associe des termes"
"rt;28;'r_lieu-1';'lieu>chose';A partir d'un lieu, il est demandé d'énumérer ce qui peut typiquement s'y trouver. Par exemple : Paris r_lieu-1 tour Eiffel"
"rt;30;'r_lieu_action';'lieu>action';A partir d'un lieu, énumérer les actions typiques possibles dans ce lieu."
"rt;31;'r_action_lieu';'action>lieu';A partir d'une action (un verbe), énumérer les lieux typiques possibles où peut être réalisée cette action."
"rt;32;'r_sentiment';'sentiment';Pour un terme donné, évoquer des mots liés à des SENTIMENTS ou des EMOTIONS que vous pourriez associer à ce terme. Par exemple, la joie, le plaisir, le dégoût, la peur, la haine, l'amour, l'indifférence, l'envie, avoir peur, horrible, etc."
"rt;34;'r_manner';'manière';De quelles MANIERES peut être effectuée l'action (le verbe) proposée. Il s'agira d'un adverbe ou d'un équivalent comme une locution adverbiale, par exemple : 'rapidement', 'sur le pouce', 'goulûment', 'salement' ... pour 'manger'."
"rt;35;'r_meaning/glose';'glose/sens/signification';Quels SENS/SIGNIFICATIONS pouvez vous donner au terme proposé. Il s'agira de termes (des gloses) évoquant chacun des sens possibles, par exemple : 'forces de l'ordre', 'contrat d'assurance', 'police typographique', ... pour 'police'."
rt;36;'r_infopot';'information potentielle';Information sémantique potentielle
rt;41;'r_has_conseq';'conséquence';B (que vous devez donner) est une CONSEQUENCE possible de A. A et B sont des verbes ou des noms.  Exemples : tomber -> se blesser ; faim -> voler ; allumer -> incendie ; négligence --> accident ; etc.
rt;42;'r_has_causatif';'cause';B (que vous devez donner) est une CAUSE possible de A. A et B sont des verbes ou des noms.  Exemples : se blesser -> tomber ; vol -> pauvreté ; incendie -> négligence ; mort --> maladie ; etc.
rt;45;'r_chunk_sujet';'r_chunk_sujet';(interne)
rt;46;'r_chunk_objet';'r_chunk_objet';(interne)
rt;48;'r_chunk_instr';'r_chunk_instr';(interne)
"rt;50;'r_object>mater';'objet>matiere';Quel est la ou les MATIERE/SUBSTANCE pouvant composer l'objet qui suit. Par exemple, 'bois' pour 'poutre'."
"rt;51;'r_mater>object';'matière>objet';Quel est la ou les CHOSES qui sont composés de la MATIERE/SUBSTANCE qui suit (exemple 'bois' -> poutre, table, ...)."
"rt;52;'r_successeur-time';'successeur temporel';Qu'est ce qui peut SUIVRE temporellement (par exemple Noêl -> jour de l'an, guerre -> paix, jour -> nuit,  pluie -> beau temps, repas -> sieste, etc) le terme suivant :"
"rt;53;'r_make';'produit';Que peut PRODUIRE le terme ? (par exemple abeille -> miel, usine -> voiture, agriculteur -> blé,  moteur -> gaz carbonique ...)"
rt;54;'r_product_of';'est le produit de';Le terme est le RESULTAT/PRODUIT de qui/quoi ?
"rt;55;'r_against';'s'oppose à';A quoi le terme suivant S'OPPOSE/COMBAT/EMPECHE ? Par exemple, un médicament s'oppose à la maladie."
"rt;56;'r_against-1';'a comme opposition';Inverse de r_against (s'oppose à) - a comme opposition active (S'OPPOSE/COMBAT/EMPECHE). Par exemple, une bactérie à comme opposition antibiotique."
"rt;62;'r_manner-1';'maniere-1';Quelles ACTIONS (verbes) peut-on effectuer de cette manière ? Par exemple, rapidement -> courir, manger, ..."
rt;66;'r_chunk_head';'r_chunk_head';
"rt;71;'r_variante';'variante';Variantes du termes cible. Par exemple, yaourt, yahourt, ou encore évènement, événement."
"rt;72;'r_syn_strict';'r_syn_strict';Termes strictement substituables, pour des termes hors du domaine général, et pour la plupart des noms (exemple : endométriose intra-utérine --> adénomyose)"
rt;73;'r_is_smaller_than';'est plus petit que';Qu'est-ce qui est physiquement plus gros que... (la comparaison doit être pertinente)
rt;74;'r_is_bigger_than';'est plus gros que';Qu'est-ce qui est physiquement moins gros que... (la comparaison doit être pertinente)
"rt;75;'r_accomp';'accompagne';Est souvent accompagné de, se trouve avec... Par exemple : Astérix et Obelix, le pain et le fromage, les fraises et la chantilly."
"rt;78;'r_cohypo';'co-hyponyme';Il est demandé d'énumérer les CO-HYPONYMES du terme. Par exemple, 'chat' et 'tigre' sont des co-hyponymes (de 'félin')."
rt;106;'r_has_color';'couleur';A comme couleur(s)... chat r_color noir
rt;109;'r_has_predecesseur-time';'prédécesseur temporel';Qu'est ce qui peut PRECEDER temporellement (par exemple -  inverse de successeur) le terme suivant :
"rt;115;'r_sentiment-1';'sentiment-1';Pour un SENTIMENT ou EMOTION donné, il est demandé dénumérer les termes que vous pourriez associer. Par exemple, pour 'joie', on aurait 'cadeau', 'naissance', 'bonne nouvelle', etc."
"rt;121;'r_own';'pers>possession';Que POSSEDE le terme suivant ? (un soldat possède un fusil, une cavalière des bottes, ...  soldat r_own fusil, ...)"
"rt;122;'r_own-1';'possession>pers';Par qui ou quoi EST POSSEDE le terme suivant ? (par exemple, fusil r_own-1 soldat)"
"rt;126;'r_isa-incompatible';'r_isa-incompatible';Relation d'incompatibilité pour les génériques. Si A r_isa-incompatible B alors X ne peut pas être à la fois A et B ou alors X est polysémique. Par exemple, poisson r_isa-incompatible oiseau. Colin est à la fois un oiseau et un poisson, donc colin est polysémique."
rt;128;'r_node2relnode-in';'r_node2relnode-in';Relation entre un noeud (quelconque) et un noeud de relation (type = 10)  - connecte le noeud d'entrée - permet de rendre le graphe connexe même avec les annotations de relations
"rt;130;'r_is_instance_of';'est une instance de';Une instance est un individu particulier. Il s'agit d'une entité nommée (personne, lieu, organisation, etc) - par exemple, 'Jolly Jumper' est une instance de 'cheval', 'Titanic' en est une de 'transatlantique'."
rt;140;'r_node2relnode-out';'r_node2relnode-out';Relation entre un noeud (quelconque) et un noeud de relation (type = 10) - connecte le noeud de sortie - permet de rendre le graphe connexe même avec les annotations de relations
"rt;152;'r_domain_subst';'domain_subst';Quels sont le ou les domaines de substitution pour ce terme quand il est utilisé comme domaine (par exemple, 'muscle' => 'anatomie du système musculaire')"
"rt;153;'r_has_prop';'propriété';Pour le terme donné, il faut indiquer les noms de propriétés pertinents (par exemple pour 'voiture', le 'prix', la 'puissance', la 'longueur', le 'poids', etc. On ne met que des noms et pas des adjectifs)."
rt;155;'r_make_use_of';'r_make_use_of';Peut utiliser un objet ou produit (par exemple électricité pour frigo).
rt;156;'r_is_used_by';'r_is_used_by';Est utilisé par (par exemple essence pour voiture).
rt;170;'r_sing_form';'r_sing_from';La forme au singulier d'un terme. Exemple : chevaux r_sing_from cheval (pas de relation inverse)
rt;333;'r_translation';'r_translation';Traduction vers une autre langue.
"rt;444;'r_link';'r_link';Lien vers une ressource externe (WordNet, RadLex, UMLS, Wikipedia, etc...)"
rt;555;'r_cooccurrence';'r_cooccurrence';co-occurences (non utilisée)
rt;666;'r_aki';'r_aki';(TOTAKI) equivalent pour TOTAKI de l'association libre
rt;777;'r_wiki';'r_wiki';Associations issues de wikipedia...
"rt;999;'r_inhib';'r_inhib';relation d'inhibition, le terme inhibe les termes suivants... ce terme a tendance à exclure le terme associé."
rt;1002;'r_termgroup';'r_termgroup';(interne)
rt;2000;'r_raff_sem-1';'r_raff_sem-1';Inverse de r_raff_sem (automatique)
